<svg width="113" height="47" viewBox="0 0 113 47" fill="none" xmlns="http://www.w3.org/2000/svg">
<path d="M0.679993 23.3701C0.679993 10.8801 10.8 0.759766 23.29 0.759766C35.78 0.759766 45.9 10.8801 45.9 23.3701C45.9 35.8601 35.78 45.98 23.29 45.98C10.8 45.99 0.679993 35.8601 0.679993 23.3701Z" stroke="white" stroke-miterlimit="10" stroke-linecap="round" stroke-linejoin="round"/>
<path d="M111.76 23.3701H21.52" stroke="white" stroke-linecap="round" stroke-linejoin="round"/>
<path d="M24.83 19.2798L25.51 20.02L21.9 23.3701L25.51 26.73L24.83 27.46L20.43 23.3701L24.83 19.2798Z" fill="white"/>
</svg>
